%YAML 1.1
%TAG !u! tag:unity3d.com,2011:
--- !u!29 &1
OcclusionCullingSettings:
  m_ObjectHideFlags: 0
  serializedVersion: 2
  m_OcclusionBakeSettings:
    smallestOccluder: 5
    smallestHole: 0.25
    backfaceThreshold: 100
  m_SceneGUID: 00000000000000000000000000000000
  m_OcclusionCullingData: {fileID: 0}
--- !u!104 &2
RenderSettings:
  m_ObjectHideFlags: 0
  serializedVersion: 8
  m_Fog: 0
  m_FogColor: {r: 0.5, g: 0.5, b: 0.5, a: 1}
  m_FogMode: 3
  m_FogDensity: 0.01
  m_LinearFogStart: 0
  m_LinearFogEnd: 300
  m_AmbientSkyColor: {r: 0.212, g: 0.227, b: 0.259, a: 1}
  m_AmbientEquatorColor: {r: 0.114, g: 0.125, b: 0.133, a: 1}
  m_AmbientGroundColor: {r: 0.047, g: 0.043, b: 0.035, a: 1}
  m_AmbientIntensity: 1
  m_AmbientMode: 0
  m_SubtractiveShadowColor: {r: 0.42, g: 0.478, b: 0.627, a: 1}
  m_SkyboxMaterial: {fileID: 10304, guid: 0000000000000000f000000000000000, type: 0}
  m_HaloStrength: 0.5
  m_FlareStrength: 1
  m_FlareFadeSpeed: 3
  m_HaloTexture: {fileID: 0}
  m_SpotCookie: {fileID: 10001, guid: 0000000000000000e000000000000000, type: 0}
  m_DefaultReflectionMode: 0
  m_DefaultReflectionResolution: 128
  m_ReflectionBounces: 1
  m_ReflectionIntensity: 1
  m_CustomReflection: {fileID: 0}
  m_Sun: {fileID: 0}
  m_IndirectSpecularColor: {r: 0.44657844, g: 0.49641222, b: 0.57481694, a: 1}
--- !u!157 &3
LightmapSettings:
  m_ObjectHideFlags: 0
  serializedVersion: 11
  m_GIWorkflowMode: 0
  m_GISettings:
    serializedVersion: 2
    m_BounceScale: 1
    m_IndirectOutputScale: 1
    m_AlbedoBoost: 1
    m_TemporalCoherenceThreshold: 1
    m_EnvironmentLightingMode: 0
    m_EnableBakedLightmaps: 1
    m_EnableRealtimeLightmaps: 1
  m_LightmapEditorSettings:
    serializedVersion: 9
    m_Resolution: 2
    m_BakeResolution: 40
    m_TextureWidth: 1024
    m_TextureHeight: 1024
    m_AO: 0
    m_AOMaxDistance: 1
    m_CompAOExponent: 1
    m_CompAOExponentDirect: 0
    m_Padding: 2
    m_LightmapParameters: {fileID: 0}
    m_LightmapsBakeMode: 1
    m_TextureCompression: 1
    m_FinalGather: 0
    m_FinalGatherFiltering: 1
    m_FinalGatherRayCount: 256
    m_ReflectionCompression: 2
    m_MixedBakeMode: 2
    m_BakeBackend: 0
    m_PVRSampling: 1
    m_PVRDirectSampleCount: 32
    m_PVRSampleCount: 500
    m_PVRBounces: 2
    m_PVRFiltering: 0
    m_PVRFilteringMode: 1
    m_PVRCulling: 1
    m_PVRFilteringGaussRadiusDirect: 1
    m_PVRFilteringGaussRadiusIndirect: 5
    m_PVRFilteringGaussRadiusAO: 2
    m_PVRFilteringAtrousColorSigma: 1
    m_PVRFilteringAtrousNormalSigma: 1
    m_PVRFilteringAtrousPositionSigma: 1
  m_LightingDataAsset: {fileID: 0}
  m_UseShadowmask: 1
--- !u!196 &4
NavMeshSettings:
  serializedVersion: 2
  m_ObjectHideFlags: 0
  m_BuildSettings:
    serializedVersion: 2
    agentTypeID: 0
    agentRadius: 0.5
    agentHeight: 2
    agentSlope: 45
    agentClimb: 0.4
    ledgeDropHeight: 0
    maxJumpAcrossDistance: 0
    minRegionArea: 2
    manualCellSize: 0
    cellSize: 0.16666667
    manualTileSize: 0
    tileSize: 256
    accuratePlacement: 0
  m_NavMeshData: {fileID: 0}
--- !u!1001 &327745033
Prefab:
  m_ObjectHideFlags: 0
  serializedVersion: 2
  m_Modification:
    m_TransformParent: {fileID: 0}
    m_Modifications:
    - target: {fileID: 4757666947334760, guid: 34bca71405460d141b4b01a020d522c2, type: 2}
      propertyPath: m_LocalPosition.x
      value: 0
      objectReference: {fileID: 0}
    - target: {fileID: 4757666947334760, guid: 34bca71405460d141b4b01a020d522c2, type: 2}
      propertyPath: m_LocalPosition.y
      value: 0
      objectReference: {fileID: 0}
    - target: {fileID: 4757666947334760, guid: 34bca71405460d141b4b01a020d522c2, type: 2}
      propertyPath: m_LocalPosition.z
      value: 0
      objectReference: {fileID: 0}
    - target: {fileID: 4757666947334760, guid: 34bca71405460d141b4b01a020d522c2, type: 2}
      propertyPath: m_LocalRotation.x
      value: 0
      objectReference: {fileID: 0}
    - target: {fileID: 4757666947334760, guid: 34bca71405460d141b4b01a020d522c2, type: 2}
      propertyPath: m_LocalRotation.y
      value: 1
      objectReference: {fileID: 0}
    - target: {fileID: 4757666947334760, guid: 34bca71405460d141b4b01a020d522c2, type: 2}
      propertyPath: m_LocalRotation.z
      value: 0
      objectReference: {fileID: 0}
    - target: {fileID: 4757666947334760, guid: 34bca71405460d141b4b01a020d522c2, type: 2}
      propertyPath: m_LocalRotation.w
      value: 0
      objectReference: {fileID: 0}
    - target: {fileID: 4757666947334760, guid: 34bca71405460d141b4b01a020d522c2, type: 2}
      propertyPath: m_RootOrder
      value: 1
      objectReference: {fileID: 0}
    m_RemovedComponents: []
  m_ParentPrefab: {fileID: 100100000, guid: 34bca71405460d141b4b01a020d522c2, type: 2}
  m_IsPrefabParent: 0
--- !u!1 &676710413
GameObject:
  m_ObjectHideFlags: 0
  m_PrefabParentObject: {fileID: 0}
  m_PrefabInternal: {fileID: 0}
  serializedVersion: 5
  m_Component:
  - component: {fileID: 676710415}
  - component: {fileID: 676710414}
  m_Layer: 0
  m_Name: Directional Light
  m_TagString: Untagged
  m_Icon: {fileID: 0}
  m_NavMeshLayer: 0
  m_StaticEditorFlags: 0
  m_IsActive: 1
--- !u!108 &676710414
Light:
  m_ObjectHideFlags: 0
  m_PrefabParentObject: {fileID: 0}
  m_PrefabInternal: {fileID: 0}
  m_GameObject: {fileID: 676710413}
  m_Enabled: 1
  serializedVersion: 8
  m_Type: 1
  m_Color: {r: 1, g: 0.95686275, b: 0.8392157, a: 1}
  m_Intensity: 1
  m_Range: 10
  m_SpotAngle: 30
  m_CookieSize: 10
  m_Shadows:
    m_Type: 2
    m_Resolution: -1
    m_CustomResolution: -1
    m_Strength: 1
    m_Bias: 0.05
    m_NormalBias: 0.4
    m_NearPlane: 0.2
  m_Cookie: {fileID: 0}
  m_DrawHalo: 0
  m_Flare: {fileID: 0}
  m_RenderMode: 0
  m_CullingMask:
    serializedVersion: 2
    m_Bits: 4294967295
  m_Lightmapping: 4
  m_AreaSize: {x: 1, y: 1}
  m_BounceIntensity: 1
  m_ColorTemperature: 6570
  m_UseColorTemperature: 0
  m_ShadowRadius: 0
  m_ShadowAngle: 0
--- !u!4 &676710415
Transform:
  m_ObjectHideFlags: 0
  m_PrefabParentObject: {fileID: 0}
  m_PrefabInternal: {fileID: 0}
  m_GameObject: {fileID: 676710413}
  m_LocalRotation: {x: 0.40821788, y: -0.23456968, z: 0.10938163, w: 0.8754261}
  m_LocalPosition: {x: 0, y: 3, z: 0}
  m_LocalScale: {x: 1, y: 1, z: 1}
  m_Children: []
  m_Father: {fileID: 0}
  m_RootOrder: 2
  m_LocalEulerAnglesHint: {x: 50, y: -30, z: 0}
--- !u!1 &831751027
GameObject:
  m_ObjectHideFlags: 0
  m_PrefabParentObject: {fileID: 0}
  m_PrefabInternal: {fileID: 0}
  serializedVersion: 5
  m_Component:
  - component: {fileID: 831751032}
  - component: {fileID: 831751031}
  - component: {fileID: 831751030}
  - component: {fileID: 831751029}
  - component: {fileID: 831751028}
  m_Layer: 0
  m_Name: Main Camera
  m_TagString: MainCamera
  m_Icon: {fileID: 0}
  m_NavMeshLayer: 0
  m_StaticEditorFlags: 0
  m_IsActive: 1
--- !u!81 &831751028
AudioListener:
  m_ObjectHideFlags: 0
  m_PrefabParentObject: {fileID: 0}
  m_PrefabInternal: {fileID: 0}
  m_GameObject: {fileID: 831751027}
  m_Enabled: 1
--- !u!124 &831751029
Behaviour:
  m_ObjectHideFlags: 0
  m_PrefabParentObject: {fileID: 0}
  m_PrefabInternal: {fileID: 0}
  m_GameObject: {fileID: 831751027}
  m_Enabled: 1
--- !u!92 &831751030
Behaviour:
  m_ObjectHideFlags: 0
  m_PrefabParentObject: {fileID: 0}
  m_PrefabInternal: {fileID: 0}
  m_GameObject: {fileID: 831751027}
  m_Enabled: 1
--- !u!20 &831751031
Camera:
  m_ObjectHideFlags: 0
  m_PrefabParentObject: {fileID: 0}
  m_PrefabInternal: {fileID: 0}
  m_GameObject: {fileID: 831751027}
  m_Enabled: 1
  serializedVersion: 2
  m_ClearFlags: 1
  m_BackGroundColor: {r: 0.19215687, g: 0.3019608, b: 0.4745098, a: 0}
  m_NormalizedViewPortRect:
    serializedVersion: 2
    x: 0
    y: 0
    width: 1
    height: 1
  near clip plane: 0.3
  far clip plane: 1000
  field of view: 60
  orthographic: 0
  orthographic size: 5
  m_Depth: -1
  m_CullingMask:
    serializedVersion: 2
    m_Bits: 4294967295
  m_RenderingPath: -1
  m_TargetTexture: {fileID: 0}
  m_TargetDisplay: 0
  m_TargetEye: 3
  m_HDR: 1
  m_AllowMSAA: 1
  m_ForceIntoRT: 0
  m_OcclusionCulling: 1
  m_StereoConvergence: 10
  m_StereoSeparation: 0.022
  m_StereoMirrorMode: 0
--- !u!4 &831751032
Transform:
  m_ObjectHideFlags: 0
  m_PrefabParentObject: {fileID: 0}
  m_PrefabInternal: {fileID: 0}
  m_GameObject: {fileID: 831751027}
  m_LocalRotation: {x: 0.5893876, y: -0, z: -0, w: 0.8078504}
  m_LocalPosition: {x: 0, y: 0.54, z: -0.199}
  m_LocalScale: {x: 1, y: 1, z: 1}
  m_Children: []
  m_Father: {fileID: 0}
  m_RootOrder: 0
  m_LocalEulerAnglesHint: {x: 72.227005, y: 0, z: 0}
--- !u!1 &1310537951
GameObject:
  m_ObjectHideFlags: 0
  m_PrefabParentObject: {fileID: 0}
  m_PrefabInternal: {fileID: 0}
  serializedVersion: 5
  m_Component:
  - component: {fileID: 1310537953}
  - component: {fileID: 1310537952}
  m_Layer: 0
  m_Name: BankManager
  m_TagString: Untagged
  m_Icon: {fileID: 0}
  m_NavMeshLayer: 0
  m_StaticEditorFlags: 0
  m_IsActive: 1
--- !u!114 &1310537952
MonoBehaviour:
  m_ObjectHideFlags: 0
  m_PrefabParentObject: {fileID: 0}
  m_PrefabInternal: {fileID: 0}
  m_GameObject: {fileID: 1310537951}
  m_Enabled: 1
  m_EditorHideFlags: 0
  m_Script: {fileID: 11500000, guid: 747cf25195043d14993a50e99308b078, type: 3}
  m_Name: 
  m_EditorClassIdentifier: 
  CardSprite:
  - {fileID: 21300000, guid: fa3a5eba3660cab4e8fb7f4999604910, type: 3}
  - {fileID: 21300002, guid: fa3a5eba3660cab4e8fb7f4999604910, type: 3}
  - {fileID: 21300004, guid: fa3a5eba3660cab4e8fb7f4999604910, type: 3}
  - {fileID: 21300006, guid: fa3a5eba3660cab4e8fb7f4999604910, type: 3}
  - {fileID: 21300008, guid: fa3a5eba3660cab4e8fb7f4999604910, type: 3}
  - {fileID: 21300010, guid: fa3a5eba3660cab4e8fb7f4999604910, type: 3}
  - {fileID: 21300012, guid: fa3a5eba3660cab4e8fb7f4999604910, type: 3}
  - {fileID: 21300014, guid: fa3a5eba3660cab4e8fb7f4999604910, type: 3}
  - {fileID: 21300016, guid: fa3a5eba3660cab4e8fb7f4999604910, type: 3}
  - {fileID: 21300018, guid: fa3a5eba3660cab4e8fb7f4999604910, type: 3}
  - {fileID: 21300020, guid: fa3a5eba3660cab4e8fb7f4999604910, type: 3}
  - {fileID: 21300022, guid: fa3a5eba3660cab4e8fb7f4999604910, type: 3}
  - {fileID: 21300024, guid: fa3a5eba3660cab4e8fb7f4999604910, type: 3}
  - {fileID: 21300000, guid: 38dbd01374835bf4fbfa5f79e5243ca6, type: 3}
  - {fileID: 21300002, guid: 38dbd01374835bf4fbfa5f79e5243ca6, type: 3}
  - {fileID: 21300004, guid: 38dbd01374835bf4fbfa5f79e5243ca6, type: 3}
  - {fileID: 21300006, guid: 38dbd01374835bf4fbfa5f79e5243ca6, type: 3}
  - {fileID: 21300008, guid: 38dbd01374835bf4fbfa5f79e5243ca6, type: 3}
  - {fileID: 21300010, guid: 38dbd01374835bf4fbfa5f79e5243ca6, type: 3}
  - {fileID: 21300012, guid: 38dbd01374835bf4fbfa5f79e5243ca6, type: 3}
  - {fileID: 21300014, guid: 38dbd01374835bf4fbfa5f79e5243ca6, type: 3}
  - {fileID: 21300016, guid: 38dbd01374835bf4fbfa5f79e5243ca6, type: 3}
  - {fileID: 21300018, guid: 38dbd01374835bf4fbfa5f79e5243ca6, type: 3}
  - {fileID: 21300020, guid: 38dbd01374835bf4fbfa5f79e5243ca6, type: 3}
  - {fileID: 21300022, guid: 38dbd01374835bf4fbfa5f79e5243ca6, type: 3}
  - {fileID: 21300024, guid: 38dbd01374835bf4fbfa5f79e5243ca6, type: 3}
  - {fileID: 21300000, guid: c40a0eea3b3848640a7b163bd101c159, type: 3}
  - {fileID: 21300002, guid: c40a0eea3b3848640a7b163bd101c159, type: 3}
  - {fileID: 21300004, guid: c40a0eea3b3848640a7b163bd101c159, type: 3}
  - {fileID: 21300006, guid: c40a0eea3b3848640a7b163bd101c159, type: 3}
  - {fileID: 21300008, guid: c40a0eea3b3848640a7b163bd101c159, type: 3}
  - {fileID: 21300010, guid: c40a0eea3b3848640a7b163bd101c159, type: 3}
  - {fileID: 21300012, guid: c40a0eea3b3848640a7b163bd101c159, type: 3}
  - {fileID: 21300014, guid: c40a0eea3b3848640a7b163bd101c159, type: 3}
  - {fileID: 21300016, guid: c40a0eea3b3848640a7b163bd101c159, type: 3}
  - {fileID: 21300018, guid: c40a0eea3b3848640a7b163bd101c159, type: 3}
  - {fileID: 21300020, guid: c40a0eea3b3848640a7b163bd101c159, type: 3}
  - {fileID: 21300022, guid: c40a0eea3b3848640a7b163bd101c159, type: 3}
  - {fileID: 21300024, guid: c40a0eea3b3848640a7b163bd101c159, type: 3}
  - {fileID: 21300000, guid: e701fb72aeb0d5648a1b537e8c2ad784, type: 3}
  - {fileID: 21300002, guid: e701fb72aeb0d5648a1b537e8c2ad784, type: 3}
  - {fileID: 21300004, guid: e701fb72aeb0d5648a1b537e8c2ad784, type: 3}
  - {fileID: 21300006, guid: e701fb72aeb0d5648a1b537e8c2ad784, type: 3}
  - {fileID: 21300008, guid: e701fb72aeb0d5648a1b537e8c2ad784, type: 3}
  - {fileID: 21300010, guid: e701fb72aeb0d5648a1b537e8c2ad784, type: 3}
  - {fileID: 21300012, guid: e701fb72aeb0d5648a1b537e8c2ad784, type: 3}
  - {fileID: 21300014, guid: e701fb72aeb0d5648a1b537e8c2ad784, type: 3}
  - {fileID: 21300016, guid: e701fb72aeb0d5648a1b537e8c2ad784, type: 3}
  - {fileID: 21300018, guid: e701fb72aeb0d5648a1b537e8c2ad784, type: 3}
  - {fileID: 21300020, guid: e701fb72aeb0d5648a1b537e8c2ad784, type: 3}
  - {fileID: 21300022, guid: e701fb72aeb0d5648a1b537e8c2ad784, type: 3}
  - {fileID: 21300024, guid: e701fb72aeb0d5648a1b537e8c2ad784, type: 3}
--- !u!4 &1310537953
Transform:
  m_ObjectHideFlags: 0
  m_PrefabParentObject: {fileID: 0}
  m_PrefabInternal: {fileID: 0}
  m_GameObject: {fileID: 1310537951}
  m_LocalRotation: {x: 0, y: 0, z: 0, w: 1}
  m_LocalPosition: {x: -5.2147818, y: -0.26003623, z: 0.42773438}
  m_LocalScale: {x: 1, y: 1, z: 1}
  m_Children: []
  m_Father: {fileID: 0}
  m_RootOrder: 3
  m_LocalEulerAnglesHint: {x: 0, y: 0, z: 0}
